…
import_ghcn_hourly("FRW00034048", 2021)
#> # A tibble: 17,345 × 36
#>    station_id  station_name date                latitude longitude elevation
#>    <chr>       <chr>        <dttm>                 <dbl>     <dbl>     <dbl>
#>  1 FRW00034048 CHATEAUROUX  2021-01-01 00:00:00     46.9      1.73      161.
#>  2 FRW00034048 CHATEAUROUX  2021-01-01 00:30:00     46.9      1.73      161.
#>  3 FRW00034048 CHATEAUROUX  2021-01-01 01:00:00     46.9      1.73      161.
#>  4 FRW00034048 CHATEAUROUX  2021-01-01 01:30:00     46.9      1.73      161.
#>  5 FRW00034048 CHATEAUROUX  2021-01-01 02:00:00     46.9      1.73      161.
#>  6 FRW00034048 CHATEAUROUX  2021-01-01 02:30:00     46.9      1.73      161.
#>  7 FRW00034048 CHATEAUROUX  2021-01-01 03:00:00     46.9      1.73      161.
#>  8 FRW00034048 CHATEAUROUX  2021-01-01 03:30:00     46.9      1.73      161.
#>  9 FRW00034048 CHATEAUROUX  2021-01-01 04:00:00     46.9      1.73      161.
#> 10 FRW00034048 CHATEAUROUX  2021-01-01 04:30:00     46.9      1.73      161.
#> # ℹ 17,335 more rows
#> # ℹ 30 more variables: temperature <dbl>, dew_point_temperature <dbl>,
#> #   station_level_pressure <dbl>, sea_level_pressure <dbl>,
#> #   wind_direction <chr>, wind_speed <dbl>, wind_gust <dbl>,
#> #   precipitation <dbl>, relative_humidity <dbl>, wet_bulb_temperature <dbl>,
#> #   pres_wx_mw1 <chr>, pres_wx_mw2 <lgl>, pres_wx_mw3 <lgl>, pres_wx_au1 <lgl>,
#> #   pres_wx_au2 <lgl>, pres_wx_au3 <lgl>, pres_wx_aw1 <chr>, …
```
…
