Locating Met Sites • worldmet
…
Click to expand the markers until you find the site of interest
(shown by a blue marker). This reveals some site information including
the site name, location and elevation. The most important information
revealed in the marker is the code, which is used to access the
data.

import_ghcn_stations()

When using getMeta() it will probably be useful to read
the information into a data frame. The return argument
allows users to control this:

import_ghcn_stations(return = "table")
#> # A tibble: 6,102 × 9
#>    id      latitude longitude elevation state name  gsn_flag hcn_crn_flag wmo_id
#>    <chr>      <dbl>     <dbl>     <dbl> <chr> <chr> <lgl>    <lgl>        <chr> 
#>  1 ACL000…     17.6     -61.8       5   TX    BARB… NA       NA           NA    
#>  2 ACW000…     17.1     -61.8      19.2 NA    ST J… NA       NA           NA    
#>  3 AFW000…     43.1      74.5     637   TX    KYRG… NA       NA           NA    
#>  4 AQC009…    -14.3    -171.       42.4 AS    MALA… NA       NA           NA    
#>  5 AQC009…    -14.3    -171.       80.8 AS    VAIP… NA       NA           NA    
#>  6 AQL000…    -14.3    -171.        3   FL    PAGO… NA       NA           NA    
#>  7 AQW000…    -14.3    -171.        3.7 AS    PAGO… NA       NA           91765 
#>  8 ASW000…    -22.3     114.       38.1 AS    NW C… NA       NA           NA    
#>  9 AYW000…    -77.7     -41.1      43.3 NA    ELLS… NA       NA           NA    
#> 10 AYW000…    -75.2     -77.2     421.  AR    EIGH… NA       NA           NA    
#> # ℹ 6,092 more rows
…
